# Created at 2020-01-21T11:47:17.232
Exiting self fork JVM. Received SHUTDOWN command from Maven shutdown hook.
Thread dump before exiting the process (20508@MEL84701154):
"Okio Watchdog" 
   java.lang.Thread.State: TIMED_WAITING
        at java.lang.Object.wait(Native Method)
        at java.lang.Object.wait(Unknown Source)
        at okio.AsyncTimeout.awaitTimeout(AsyncTimeout.java:361)
        at okio.AsyncTimeout$Watchdog.run(AsyncTimeout.java:312)

"OkHttp ConnectionPool" 
   java.lang.Thread.State: TIMED_WAITING
        at java.lang.Object.wait(Native Method)
        at java.lang.Object.wait(Unknown Source)
        at okhttp3.ConnectionPool$1.run(ConnectionPool.java:67)
        at java.util.concurrent.ThreadPoolExecutor.runWorker(Unknown Source)
        at java.util.concurrent.ThreadPoolExecutor$Worker.run(Unknown Source)
        at java.lang.Thread.run(Unknown Source)

"Exec Stream Pumper" 
   java.lang.Thread.State: RUNNABLE
        at java.io.FileInputStream.readBytes(Native Method)
        at java.io.FileInputStream.read(Unknown Source)
        at org.apache.commons.exec.StreamPumper.run(StreamPumper.java:107)
        at java.lang.Thread.run(Unknown Source)

"Exec Stream Pumper" 
   java.lang.Thread.State: RUNNABLE
        at java.io.FileInputStream.readBytes(Native Method)
        at java.io.FileInputStream.read(Unknown Source)
        at java.io.BufferedInputStream.fill(Unknown Source)
        at java.io.BufferedInputStream.read1(Unknown Source)
        at java.io.BufferedInputStream.read(Unknown Source)
        at java.io.FilterInputStream.read(Unknown Source)
        at org.apache.commons.exec.StreamPumper.run(StreamPumper.java:107)
        at java.lang.Thread.run(Unknown Source)

"Exec Default Executor" 
   java.lang.Thread.State: RUNNABLE
        at java.lang.ProcessImpl.waitForInterruptibly(Native Method)
        at java.lang.ProcessImpl.waitFor(Unknown Source)
        at org.apache.commons.exec.DefaultExecutor.executeInternal(DefaultExecutor.java:364)
        at org.apache.commons.exec.DefaultExecutor.access$200(DefaultExecutor.java:48)
        at org.apache.commons.exec.DefaultExecutor$1.run(DefaultExecutor.java:200)
        at java.lang.Thread.run(Unknown Source)

"surefire-forkedjvm-command-thread" 
   java.lang.Thread.State: RUNNABLE
        at sun.management.ThreadImpl.getThreadInfo1(Native Method)
        at sun.management.ThreadImpl.getThreadInfo(Unknown Source)
        at org.apache.maven.surefire.booter.ForkedBooter.generateThreadDump(ForkedBooter.java:546)
        at org.apache.maven.surefire.booter.ForkedBooter.access$400(ForkedBooter.java:68)
        at org.apache.maven.surefire.booter.ForkedBooter$4.update(ForkedBooter.java:295)
        at org.apache.maven.surefire.booter.CommandReader$CommandRunnable.callListeners(CommandReader.java:467)
        at org.apache.maven.surefire.booter.CommandReader$CommandRunnable.exitByConfiguration(CommandReader.java:479)
        at org.apache.maven.surefire.booter.CommandReader$CommandRunnable.run(CommandReader.java:432)
        at java.lang.Thread.run(Unknown Source)

"Attach Listener" 
   java.lang.Thread.State: RUNNABLE

"Signal Dispatcher" 
   java.lang.Thread.State: RUNNABLE

"Finalizer" 
   java.lang.Thread.State: WAITING
        at java.lang.Object.wait(Native Method)
        at java.lang.ref.ReferenceQueue.remove(Unknown Source)
        at java.lang.ref.ReferenceQueue.remove(Unknown Source)
        at java.lang.ref.Finalizer$FinalizerThread.run(Unknown Source)

"Reference Handler" 
   java.lang.Thread.State: WAITING
        at java.lang.Object.wait(Native Method)
        at java.lang.Object.wait(Unknown Source)
        at java.lang.ref.Reference.tryHandlePending(Unknown Source)
        at java.lang.ref.Reference$ReferenceHandler.run(Unknown Source)

"Forwarding findElement on session 88dfb5d03898d38d3661530562227581 to remote" 
   java.lang.Thread.State: RUNNABLE
        at java.net.SocketInputStream.socketRead0(Native Method)
        at java.net.SocketInputStream.socketRead(Unknown Source)
        at java.net.SocketInputStream.read(Unknown Source)
        at java.net.SocketInputStream.read(Unknown Source)
        at okio.Okio$2.read(Okio.java:140)
        at okio.AsyncTimeout$2.read(AsyncTimeout.java:237)
        at okio.RealBufferedSource.indexOf(RealBufferedSource.java:355)
        at okio.RealBufferedSource.readUtf8LineStrict(RealBufferedSource.java:227)
        at okhttp3.internal.http1.Http1Codec.readHeaderLine(Http1Codec.java:215)
        at okhttp3.internal.http1.Http1Codec.readResponseHeaders(Http1Codec.java:189)
        at okhttp3.internal.http.CallServerInterceptor.intercept(CallServerInterceptor.java:88)
        at okhttp3.internal.http.RealInterceptorChain.proceed(RealInterceptorChain.java:147)
        at okhttp3.internal.http.RealInterceptorChain.proceed(RealInterceptorChain.java:121)
        at org.openqa.selenium.remote.internal.OkHttpClient$Factory$1.lambda$createClient$1(OkHttpClient.java:152)
        at org.openqa.selenium.remote.internal.OkHttpClient$Factory$1$$Lambda$7/87242619.intercept(Unknown Source)
        at okhttp3.internal.http.RealInterceptorChain.proceed(RealInterceptorChain.java:147)
        at okhttp3.internal.connection.ConnectInterceptor.intercept(ConnectInterceptor.java:45)
        at okhttp3.internal.http.RealInterceptorChain.proceed(RealInterceptorChain.java:147)
        at okhttp3.internal.http.RealInterceptorChain.proceed(RealInterceptorChain.java:121)
        at okhttp3.internal.cache.CacheInterceptor.intercept(CacheInterceptor.java:93)
        at okhttp3.internal.http.RealInterceptorChain.proceed(RealInterceptorChain.java:147)
        at okhttp3.internal.http.RealInterceptorChain.proceed(RealInterceptorChain.java:121)
        at okhttp3.internal.http.BridgeInterceptor.intercept(BridgeInterceptor.java:93)
        at okhttp3.internal.http.RealInterceptorChain.proceed(RealInterceptorChain.java:147)
        at okhttp3.internal.http.RetryAndFollowUpInterceptor.intercept(RetryAndFollowUpInterceptor.java:126)
        at okhttp3.internal.http.RealInterceptorChain.proceed(RealInterceptorChain.java:147)
        at okhttp3.internal.http.RealInterceptorChain.proceed(RealInterceptorChain.java:121)
        at okhttp3.RealCall.getResponseWithInterceptorChain(RealCall.java:200)
        at okhttp3.RealCall.execute(RealCall.java:77)
        at org.openqa.selenium.remote.internal.OkHttpClient.execute(OkHttpClient.java:103)
        at org.openqa.selenium.remote.HttpCommandExecutor.execute(HttpCommandExecutor.java:155)
        at org.openqa.selenium.remote.service.DriverCommandExecutor.execute(DriverCommandExecutor.java:83)
        at org.openqa.selenium.remote.RemoteWebDriver.execute(RemoteWebDriver.java:552)
        at org.openqa.selenium.remote.RemoteWebDriver.findElement(RemoteWebDriver.java:323)
        at org.openqa.selenium.remote.RemoteWebDriver.findElementByXPath(RemoteWebDriver.java:428)
        at org.openqa.selenium.By$ByXPath.findElement(By.java:353)
        at org.openqa.selenium.remote.RemoteWebDriver.findElement(RemoteWebDriver.java:315)
        at org.openqa.selenium.support.pagefactory.DefaultElementLocator.findElement(DefaultElementLocator.java:69)
        at org.openqa.selenium.support.pagefactory.internal.LocatingElementHandler.invoke(LocatingElementHandler.java:38)
        at com.sun.proxy.$Proxy16.click(Unknown Source)
        at SEHQPages.SFFundingTypesPage.createFundingTypes(SFFundingTypesPage.java:39)
        at stepDefinations.stepDefination.parent_should_be_able_to_login_successfully(stepDefination.java:101)
        at sun.reflect.NativeMethodAccessorImpl.invoke0(Native Method)
        at sun.reflect.NativeMethodAccessorImpl.invoke(Unknown Source)
        at sun.reflect.DelegatingMethodAccessorImpl.invoke(Unknown Source)
        at java.lang.reflect.Method.invoke(Unknown Source)
        at cucumber.runtime.Utils$1.call(Utils.java:40)
        at cucumber.runtime.Timeout.timeout(Timeout.java:16)
        at cucumber.runtime.Utils.invoke(Utils.java:34)
        at cucumber.runtime.java.JavaStepDefinition.execute(JavaStepDefinition.java:38)
        at cucumber.runtime.StepDefinitionMatch.runStep(StepDefinitionMatch.java:37)
        at cucumber.runtime.Runtime.runStep(Runtime.java:300)
        at cucumber.runtime.model.StepContainer.runStep(StepContainer.java:44)
        at cucumber.runtime.model.StepContainer.runSteps(StepContainer.java:39)
        at cucumber.runtime.model.CucumberScenario.run(CucumberScenario.java:44)
        at cucumber.runtime.junit.ExecutionUnitRunner.run(ExecutionUnitRunner.java:102)
        at cucumber.runtime.junit.FeatureRunner.runChild(FeatureRunner.java:63)
        at cucumber.runtime.junit.FeatureRunner.runChild(FeatureRunner.java:18)
        at org.junit.runners.ParentRunner$3.run(ParentRunner.java:290)
        at org.junit.runners.ParentRunner$1.schedule(ParentRunner.java:71)
        at org.junit.runners.ParentRunner.runChildren(ParentRunner.java:288)
        at org.junit.runners.ParentRunner.access$000(ParentRunner.java:58)
        at org.junit.runners.ParentRunner$2.evaluate(ParentRunner.java:268)
        at org.junit.runners.ParentRunner.run(ParentRunner.java:363)
        at cucumber.runtime.junit.FeatureRunner.run(FeatureRunner.java:70)
        at cucumber.api.junit.Cucumber.runChild(Cucumber.java:95)
        at cucumber.api.junit.Cucumber.runChild(Cucumber.java:38)
        at org.junit.runners.ParentRunner$3.run(ParentRunner.java:290)
        at org.junit.runners.ParentRunner$1.schedule(ParentRunner.java:71)
        at org.junit.runners.ParentRunner.runChildren(ParentRunner.java:288)
        at org.junit.runners.ParentRunner.access$000(ParentRunner.java:58)
        at org.junit.runners.ParentRunner$2.evaluate(ParentRunner.java:268)
        at org.junit.internal.runners.statements.RunAfters.evaluate(RunAfters.java:27)
        at org.junit.runners.ParentRunner.run(ParentRunner.java:363)
        at cucumber.api.junit.Cucumber.run(Cucumber.java:100)
        at org.junit.runner.JUnitCore.run(JUnitCore.java:137)
        at org.junit.runner.JUnitCore.run(JUnitCore.java:115)
        at org.testng.junit.JUnit4TestRunner.start(JUnit4TestRunner.java:82)
        at org.testng.junit.JUnit4TestRunner.run(JUnit4TestRunner.java:70)
        at org.testng.TestRunner$1.run(TestRunner.java:570)
        at org.testng.TestRunner.runJUnitWorkers(TestRunner.java:717)
        at org.testng.TestRunner.privateRunJUnit(TestRunner.java:601)
        at org.testng.TestRunner.run(TestRunner.java:502)
        at org.testng.SuiteRunner.runTest(SuiteRunner.java:455)
        at org.testng.SuiteRunner.runSequentially(SuiteRunner.java:450)
        at org.testng.SuiteRunner.privateRun(SuiteRunner.java:415)
        at org.testng.SuiteRunner.run(SuiteRunner.java:364)
        at org.testng.SuiteRunnerWorker.runSuite(SuiteRunnerWorker.java:52)
        at org.testng.SuiteRunnerWorker.run(SuiteRunnerWorker.java:84)
        at org.testng.TestNG.runSuitesSequentially(TestNG.java:1208)
        at org.testng.TestNG.runSuitesLocally(TestNG.java:1137)
        at org.testng.TestNG.runSuites(TestNG.java:1049)
        at org.testng.TestNG.run(TestNG.java:1017)
        at org.apache.maven.surefire.testng.TestNGExecutor.run(TestNGExecutor.java:135)
        at org.apache.maven.surefire.testng.TestNGDirectoryTestSuite.executeSingleClass(TestNGDirectoryTestSuite.java:112)
        at org.apache.maven.surefire.testng.TestNGDirectoryTestSuite.execute(TestNGDirectoryTestSuite.java:99)
        at org.apache.maven.surefire.testng.TestNGProvider.invoke(TestNGProvider.java:146)
        at org.apache.maven.surefire.booter.ForkedBooter.runSuitesInProcess(ForkedBooter.java:377)
        at org.apache.maven.surefire.booter.ForkedBooter.execute(ForkedBooter.java:138)
        at org.apache.maven.surefire.booter.ForkedBooter.run(ForkedBooter.java:465)



