C:\Users\10027723\eclipse-workspace\TestProject\src\main\java\SEHQPages\dynamiCRMTest.java
C:\Users\10027723\eclipse-workspace\TestProject\src\main\java\Helpers\browserFactory.java
C:\Users\10027723\eclipse-workspace\TestProject\src\main\java\Helpers\TestUtil.java
C:\Users\10027723\eclipse-workspace\TestProject\src\main\java\SEHQPages\SFFundingTypesPage.java
C:\Users\10027723\eclipse-workspace\TestProject\src\main\java\SEHQPages\SFLoginPage.java
